-------------------------------------------------------------------------------
Test set: com.citi.mobileAutomation.runnerClass.RunnerFile
-------------------------------------------------------------------------------
Tests run: 0, Failures: 0, Errors: 0, Skipped: 0, Time elapsed: 58.806 s - in com.citi.mobileAutomation.runnerClass.RunnerFile
